\relax 
\catcode `"\active 
\catcode `<\active 
\catcode `>\active 
\@nameuse{es@quoting}
\catcode `'\active 
\select@language{spanish}
\@writefile{toc}{\select@language{spanish}}
\@writefile{lof}{\select@language{spanish}}
\@writefile{lot}{\select@language{spanish}}
\@writefile{toc}{\contentsline {section}{\numberline {1}Requerimientos:}{1}}
\@writefile{toc}{\contentsline {section}{\numberline {2}Descripci'on general:}{2}}
\@writefile{toc}{\contentsline {section}{\numberline {3}Arquitectura:}{3}}
