\relax 
\catcode`"\active
\catcode`<\active
\catcode`>\active
\@nameuse{es@quoting}
\catcode`'\active
\select@language{spanish}
\@writefile{toc}{\select@language{spanish}}
\@writefile{lof}{\select@language{spanish}}
\@writefile{lot}{\select@language{spanish}}
\@writefile{toc}{\contentsline {section}{\numberline {1}Requerimientos:}{1}}
\@writefile{toc}{\contentsline {section}{\numberline {2}Formas de uso:}{2}}
\@writefile{toc}{\contentsline {section}{\numberline {3}Comandos para compilar el programa:}{9}}
\@writefile{toc}{\contentsline {section}{\numberline {4}Corridas de prueba }{10}}
\@writefile{toc}{\contentsline {section}{\numberline {5}Diagramas de stack de las funciones implementadas en assembly}{12}}
\@writefile{toc}{\contentsline {section}{\numberline {6}Conclusion}{15}}
